{
  "TV_Data": {
    "Channel_List": {
      "is_channel_list": true,
      "is_override": true,
      "thumb_width": 150,
      "all_Channels_Tab_Name": "",
      "main": {
        "id": 13,
        "name": "Arabic Channels",
        "sub_name": "Channels",
        "thumbnail_url": "https://www.iptv-updated.com/wp-content/uploads/2019/12/iconfinder_flag-saudi-arabia_748010.png",
        "sub": {
          "sub_1": {
            "id": 1,
            "mode": "video",
            "name": "Abu Dhabi Sports",
            "sub_name": "",
            "stream_video_url": "http://adtv.ercdn.net/adsport1/adsport1_360p.m3u8",
            "thumbnail_url": "https://www.iptv-updated.com/wp-content/themes/shootingstar-child/uploaded_images/abu_dhabi_sports_arb_img_551.png"
          },
          "sub_2": {
            "id": 2,
            "mode": "video",
            "name": "Abu Dhabi Sports",
            "sub_name": "",
            "stream_video_url": "http://adtv.ercdn.net/adsport1/adsport1_360p.m3u8?v=3157566659",
            "thumbnail_url": "https://www.iptv-updated.com/wp-content/themes/shootingstar-child/uploaded_images/abu_dhabi_sports_arb_img_551.png"
          },
          "sub_3": {
            "id": 3,
            "mode": "website",
            "name_original": "",
            "name": "Play",
            "sub_name": "Win 10000",
            "website_url": "https://333.game.qureka.com",
            "is_system_browser": true,
            "thumbnail_url": "https://raw.githubusercontent.com/kp-bitcoding/ad-manager/main/Interstitial/1.jpg",
            "thumbnail_url_original": ""
          },
          "sub_4": {
            "id": 4,
            "mode": "video",
            "name": "Abu Dhabi Sports",
            "sub_name": "",
            "stream_video_url": "http://adtv.ercdn.net/adsport1/adsport1_720p.m3u8",
            "thumbnail_url": "https://www.iptv-updated.com/wp-content/themes/shootingstar-child/uploaded_images/abu_dhabi_sports_arb_img_551.png"
          },
          "sub_5": {
            "id": 5,
            "mode": "video",
            "name": "Abu Dhabi Sports",
            "sub_name": "",
            "stream_video_url": "http://adtv.ercdn.net/adsport1/adsport1_720p.m3u8?Compartilhandolink",
            "thumbnail_url": "https://www.iptv-updated.com/wp-content/themes/shootingstar-child/uploaded_images/abu_dhabi_sports_arb_img_551.png"
          },
          "sub_6": {
            "id": 6,
            "mode": "website",
            "name_original": "",
            "name": "Play",
            "sub_name": "Win 20000",
            "website_url": "https://333.game.qureka.com",
            "is_system_browser": true,
            "thumbnail_url": "https://raw.githubusercontent.com/kp-bitcoding/ad-manager/main/Interstitial/2.png",
            "thumbnail_url_original": ""
          },
          "sub_7": {
            "id": 7,
            "mode": "video",
            "name": "Abu Dhabi Sports",
            "sub_name": "",
            "stream_video_url": "http://www.elahmad.com/tv/m3u8/adtv.m3u8?id=abudhabi_Sports1",
            "thumbnail_url": "https://www.iptv-updated.com/wp-content/themes/shootingstar-child/uploaded_images/abu_dhabi_sports_arb_img_551.png"
          },
          "sub_8": {
            "id": 8,
            "mode": "video",
            "name": "Abu Dhabi Sports 1",
            "sub_name": "",
            "stream_video_url": "https://admdn1.cdn.mangomolo.com/adsports1/smil:adsports1.stream.smil/playlist.m3u8",
            "thumbnail_url": "https://www.iptv-updated.com/wp-content/themes/shootingstar-child/uploaded_images/abu_dhabi_sports_1_img_3380.png"
          },
          "sub_9": {
            "id": 9,
            "mode": "website",
            "name_original": "",
            "name": "Play",
            "sub_name": "Win 30000",
            "website_url": "https://333.game.qureka.com",
            "is_system_browser": true,
            "thumbnail_url": "https://raw.githubusercontent.com/kp-bitcoding/ad-manager/main/Interstitial/3.png",
            "thumbnail_url_original": ""
          },
          "sub_10": {
            "id": 10,
            "mode": "video",
            "name": "Abu Dhabi Sports 2",
            "sub_name": "",
            "stream_video_url": "http://adtv.ercdn.net/adsport2/adsport2_360p.m3u8",
            "thumbnail_url": "https://www.iptv-updated.com/wp-content/themes/shootingstar-child/uploaded_images/abu_dhabi_sports_2_img_3381.png"
          },
          "sub_11": {
            "id": 11,
            "mode": "video",
            "name": "Abu Dhabi Sports 2",
            "sub_name": "",
            "stream_video_url": "http://adtv.ercdn.net/adsport2/adsport2_360p.m3u8?v=3157566659",
            "thumbnail_url": "https://www.iptv-updated.com/wp-content/themes/shootingstar-child/uploaded_images/abu_dhabi_sports_2_img_3381.png"
          },
          "sub_12": {
            "id": 12,
            "mode": "website",
            "name_original": "",
            "name": "Play",
            "sub_name": "Win 40000",
            "website_url": "https://333.game.qureka.com",
            "is_system_browser": true,
            "thumbnail_url": "https://raw.githubusercontent.com/kp-bitcoding/ad-manager/main/Interstitial/4.png",
            "thumbnail_url_original": ""
          },
          "sub_13": {
            "id": 13,
            "mode": "video",
            "name": "Abu Dhabi Sports 2",
            "sub_name": "",
            "stream_video_url": "http://adtv.ercdn.net/adsport2/adsport2_720p.m3u8",
            "thumbnail_url": "https://www.iptv-updated.com/wp-content/themes/shootingstar-child/uploaded_images/abu_dhabi_sports_2_img_3381.png"
          },
          "sub_14": {
            "id": 14,
            "mode": "video",
            "name": "Abu Dhabi Sports 2",
            "sub_name": "",
            "stream_video_url": "http://adtv.ercdn.net/adsport2/adsport2_720p.m3u8?Compartilhandolink",
            "thumbnail_url": "https://www.iptv-updated.com/wp-content/themes/shootingstar-child/uploaded_images/abu_dhabi_sports_2_img_3381.png"
          },
          "sub_15": {
            "id": 15,
            "mode": "website",
            "name_original": "",
            "name": "Play",
            "sub_name": "Win 50000",
            "website_url": "https://333.game.qureka.com",
            "is_system_browser": true,
            "thumbnail_url": "https://raw.githubusercontent.com/kp-bitcoding/ad-manager/main/Interstitial/5.png",
            "thumbnail_url_original": ""
          },
          "sub_16": {
            "id": 16,
            "mode": "video",
            "name": "Abu Dhabi Sports 2",
            "sub_name": "",
            "stream_video_url": "http://www.elahmad.com/tv/m3u8/adtv.m3u8?id=abudhabi_sports2",
            "thumbnail_url": "https://www.iptv-updated.com/wp-content/themes/shootingstar-child/uploaded_images/abu_dhabi_sports_2_img_3381.png"
          },
          "sub_17": {
            "id": 17,
            "mode": "video",
            "name": "Abu Dhabi Sports 2",
            "sub_name": "",
            "stream_video_url": "https://admdn5.cdn.mangomolo.com/adsports2/smil:adsports2.stream.smil/playlist.m3u8",
            "thumbnail_url": "https://www.iptv-updated.com/wp-content/themes/shootingstar-child/uploaded_images/abu_dhabi_sports_2_img_3381.png"
          },
          "sub_18": {
            "id": 18,
            "mode": "website",
            "name_original": "",
            "name": "Play",
            "sub_name": "Win 60000",
            "website_url": "https://333.game.qureka.com",
            "is_system_browser": true,
            "thumbnail_url": "https://raw.githubusercontent.com/kp-bitcoding/ad-manager/main/Interstitial/6.png",
            "thumbnail_url_original": ""
          },
          "sub_19": {
            "id": 19,
            "mode": "video",
            "name": "Abu Dhabi Sports 3",
            "sub_name": "",
            "stream_video_url": "https://admdn3.cdn.mangomolo.com/adsports3/smil:adsports3.stream.smil/playlist.m3u8",
            "thumbnail_url": "https://www.iptv-updated.com/wp-content/themes/shootingstar-child/uploaded_images/abu_dhabi_sports_3_img_3382.png"
          },
          "sub_20": {
            "id": 20,
            "mode": "video",
            "name": "Abu Dhabi Sports 4",
            "sub_name": "",
            "stream_video_url": "http://www.elahmad.com/tv/m3u8/adtv.m3u8?id=abudhabi_sports4",
            "thumbnail_url": "https://www.iptv-updated.com/wp-content/themes/shootingstar-child/uploaded_images/abu_dhabi_sports_4_img_3383.png"
          },
          "sub_21": {
            "id": 21,
            "mode": "website",
            "name_original": "",
            "name": "Play",
            "sub_name": "Win 70000",
            "website_url": "https://333.game.qureka.com",
            "is_system_browser": true,
            "thumbnail_url": "https://raw.githubusercontent.com/kp-bitcoding/ad-manager/main/Interstitial/7.png",
            "thumbnail_url_original": ""
          },
          "sub_22": {
            "id": 22,
            "mode": "video",
            "name": "Abu Dhabi TV",
            "sub_name": "",
            "stream_video_url": "https://admdn2.cdn.mangomolo.com/adtv/smil:adtv.stream.smil/chunklist.m3u8",
            "thumbnail_url": "https://www.iptv-updated.com/wp-content/themes/shootingstar-child/uploaded_images/abu_dhabi_tv_img_3384.png"
          },
          "sub_23": {
            "id": 23,
            "mode": "video",
            "name": "Abu Dhabi TV ARB",
            "sub_name": "",
            "stream_video_url": "http://adtv.ercdn.net/adaloula/adaloula.m3u8",
            "thumbnail_url": "https://www.iptv-updated.com/wp-content/themes/shootingstar-child/uploaded_images/abu_dhabi_tv_arb_img_555.png"
          },
          "sub_24": {
            "id": 24,
            "mode": "website",
            "name_original": "",
            "name": "Play",
            "sub_name": "Win 10000",
            "website_url": "https://333.game.qureka.com",
            "is_system_browser": true,
            "thumbnail_url": "https://raw.githubusercontent.com/kp-bitcoding/ad-manager/main/Interstitial/1.jpg",
            "thumbnail_url_original": ""
          },
          "sub_25": {
            "id": 25,
            "mode": "video",
            "name": "Abu Dhabi TV ARB",
            "sub_name": "",
            "stream_video_url": "http://adtv.ercdn.net/adaloula/adaloula_720p.m3u8",
            "thumbnail_url": "https://www.iptv-updated.com/wp-content/themes/shootingstar-child/uploaded_images/abu_dhabi_tv_arb_img_555.png"
          },
          "sub_26": {
            "id": 26,
            "mode": "video",
            "name": "Abu Dhabi TV ARB",
            "sub_name": "",
            "stream_video_url": "http://www.elahmad.com/tv/m3u8/adtv.m3u8?id=abudhabi_aloula",
            "thumbnail_url": "https://www.iptv-updated.com/wp-content/themes/shootingstar-child/uploaded_images/abu_dhabi_tv_arb_img_555.png"
          },
          "sub_27": {
            "id": 27,
            "mode": "website",
            "name_original": "",
            "name": "Play",
            "sub_name": "Win 20000",
            "website_url": "https://333.game.qureka.com",
            "is_system_browser": true,
            "thumbnail_url": "https://raw.githubusercontent.com/kp-bitcoding/ad-manager/main/Interstitial/2.png",
            "thumbnail_url_original": ""
          },
          "sub_28": {
            "id": 28,
            "mode": "video",
            "name": "Al Arabiya",
            "sub_name": "",
            "stream_video_url": "https://shls-alarabiya-prod.shahid.net/alarabiya-prod.m3u8",
            "thumbnail_url": "https://www.iptv-updated.com/wp-content/themes/shootingstar-child/uploaded_images/al_arabiya_img_3386.png"
          },
          "sub_29": {
            "id": 29,
            "mode": "video",
            "name": "Al Arabiya Al Hadath",
            "sub_name": "",
            "stream_video_url": "https://av.alarabiya.net/alarabiapublish/alhadath.smil/playlist.m3u8",
            "thumbnail_url": "https://www.iptv-updated.com/wp-content/themes/shootingstar-child/uploaded_images/al_arabiya_al_hadath_img_3387.png"
          },
          "sub_30": {
            "id": 30,
            "mode": "website",
            "name_original": "",
            "name": "Play",
            "sub_name": "Win 30000",
            "website_url": "https://333.game.qureka.com",
            "is_system_browser": true,
            "thumbnail_url": "https://raw.githubusercontent.com/kp-bitcoding/ad-manager/main/Interstitial/3.png",
            "thumbnail_url_original": ""
          },
          "sub_31": {
            "id": 31,
            "mode": "video",
            "name": "Dubai Racing",
            "sub_name": "",
            "stream_video_url": "https://dmisvthvll.cdn.mangomolo.com/events/smil:events.smil/chunklist.m3u8",
            "thumbnail_url": "https://www.iptv-updated.com/wp-content/themes/shootingstar-child/uploaded_images/dubai_racing_img_3390.png"
          },
          "sub_32": {
            "id": 32,
            "mode": "video",
            "name": "Dubai Racing 2",
            "sub_name": "",
            "stream_video_url": "https://dmithrvll.cdn.mangomolo.com/dubairacing/smil:dubairacing.smil/chunklist.m3u8",
            "thumbnail_url": "https://www.iptv-updated.com/wp-content/themes/shootingstar-child/uploaded_images/dubai_racing_2_img_3391.png"
          },
          "sub_33": {
            "id": 33,
            "mode": "website",
            "name_original": "",
            "name": "Play",
            "sub_name": "Win 40000",
            "website_url": "https://333.game.qureka.com",
            "is_system_browser": true,
            "thumbnail_url": "https://raw.githubusercontent.com/kp-bitcoding/ad-manager/main/Interstitial/4.png",
            "thumbnail_url_original": ""
          },
          "sub_34": {
            "id": 34,
            "mode": "video",
            "name": "Dubai Racing ARB",
            "sub_name": "",
            "stream_video_url": "http://dmisvthvll.cdn.mangomolo.com/events/smil:events.smil/chunklist.m3u8",
            "thumbnail_url": "https://www.iptv-updated.com/wp-content/themes/shootingstar-child/uploaded_images/dubai_racing_arb_img_562.png"
          },
          "sub_35": {
            "id": 35,
            "mode": "video",
            "name": "Dubai Racing ARB",
            "sub_name": "",
            "stream_video_url": "http://dmisvthvll.cdn.mangomolo.com/events/smil:events.smil/chunklist_b1600000.m3u8",
            "thumbnail_url": "https://www.iptv-updated.com/wp-content/themes/shootingstar-child/uploaded_images/dubai_racing_arb_img_562.png"
          },
          "sub_36": {
            "id": 36,
            "mode": "website",
            "name_original": "",
            "name": "Play",
            "sub_name": "Win 50000",
            "website_url": "https://333.game.qureka.com",
            "is_system_browser": true,
            "thumbnail_url": "https://raw.githubusercontent.com/kp-bitcoding/ad-manager/main/Interstitial/5.png",
            "thumbnail_url_original": ""
          },
          "sub_37": {
            "id": 37,
            "mode": "video",
            "name": "Dubai Racing ARB",
            "sub_name": "",
            "stream_video_url": "http://dmithrvll.cdn.mangomolo.com/dubairacing/smil:dubairacing.smil/chunklist_b1600000.m3u8?fluxustv.m3u8",
            "thumbnail_url": "https://www.iptv-updated.com/wp-content/themes/shootingstar-child/uploaded_images/dubai_racing_arb_img_562.png"
          },
          "sub_38": {
            "id": 38,
            "mode": "video",
            "name": "Dubai Sports 1",
            "sub_name": "",
            "stream_video_url": "https://dmitnthvll.cdn.mangomolo.com/dubaisports/smil:dubaisports.smil/index.m3u8",
            "thumbnail_url": "https://www.iptv-updated.com/wp-content/themes/shootingstar-child/uploaded_images/dubai_sports_1_img_3393.png"
          },
          "sub_39": {
            "id": 39,
            "mode": "website",
            "name_original": "",
            "name": "Play",
            "sub_name": "Win 60000",
            "website_url": "https://333.game.qureka.com",
            "is_system_browser": true,
            "thumbnail_url": "https://raw.githubusercontent.com/kp-bitcoding/ad-manager/main/Interstitial/6.png",
            "thumbnail_url_original": ""
          },
          "sub_40": {
            "id": 40,
            "mode": "video",
            "name": "Dubai Sports 3",
            "sub_name": "",
            "stream_video_url": "https://dmitwlvvll.cdn.mangomolo.com/dubaisportshd5/smil:dubaisportshd5.smil/index.m3u8",
            "thumbnail_url": "https://www.iptv-updated.com/wp-content/themes/shootingstar-child/uploaded_images/dubai_sports_3_img_3395.png"
          },
          "sub_41": {
            "id": 41,
            "mode": "video",
            "name": "Dubai Zaman",
            "sub_name": "",
            "stream_video_url": "https://dmiffthvll.cdn.mangomolo.com/dubaizaman/smil:dubaizaman.stream.smil/playlist.m3u8",
            "thumbnail_url": "https://www.iptv-updated.com/wp-content/themes/shootingstar-child/uploaded_images/dubai_zaman_img_3397.png"
          },
          "sub_42": {
            "id": 42,
            "mode": "website",
            "name_original": "",
            "name": "Play",
            "sub_name": "Win 70000",
            "website_url": "https://333.game.qureka.com",
            "is_system_browser": true,
            "thumbnail_url": "https://raw.githubusercontent.com/kp-bitcoding/ad-manager/main/Interstitial/7.png",
            "thumbnail_url_original": ""
          },
          "sub_43": {
            "id": 43,
            "mode": "video",
            "name": "Noor Dubai ARB",
            "sub_name": "",
            "stream_video_url": "http://www.elahmad.com/tv/m3u8/dubaitv.m3u8?id=noordubaitv",
            "thumbnail_url": "https://www.iptv-updated.com/wp-content/themes/shootingstar-child/uploaded_images/noor_dubai_arb_img_578.png"
          },
          "sub_44": {
            "id": 44,
            "mode": "video",
            "name": "Sharjah 2",
            "sub_name": "",
            "stream_video_url": "https://svs.itworkscdn.net/smc2live/smc2tv.smil/playlist.m3u8",
            "thumbnail_url": "https://www.iptv-updated.com/wp-content/themes/shootingstar-child/uploaded_images/sharjah_2_img_3414.png"
          },
          "sub_45": {
            "id": 45,
            "mode": "website",
            "name_original": "",
            "name": "Play",
            "sub_name": "Win 10000",
            "website_url": "https://333.game.qureka.com",
            "is_system_browser": true,
            "thumbnail_url": "https://raw.githubusercontent.com/kp-bitcoding/ad-manager/main/Interstitial/1.jpg",
            "thumbnail_url_original": ""
          },
          "sub_46": {
            "id": 46,
            "mode": "video",
            "name": "Sharjah TV",
            "sub_name": "",
            "stream_video_url": "https://svs.itworkscdn.net/smc1live/smc1.smil/playlist.m3u8",
            "thumbnail_url": "https://www.iptv-updated.com/wp-content/themes/shootingstar-child/uploaded_images/sharjah_tv_img_3416.png"
          },
          "sub_47": {
            "id": 47,
            "mode": "video",
            "name": "Sharqiya from Kalba ARB",
            "sub_name": "",
            "stream_video_url": "http://svs.itworkscdn.net/kablatvlive/kabtv1.smil/playlist.m3u8",
            "thumbnail_url": "https://www.iptv-updated.com/wp-content/themes/shootingstar-child/uploaded_images/sharqiya_from_kalba_arb_img_580.png"
          },
          "sub_48": {
            "id": 48,
            "mode": "website",
            "name_original": "",
            "name": "Play",
            "sub_name": "Win 20000",
            "website_url": "https://333.game.qureka.com",
            "is_system_browser": true,
            "thumbnail_url": "https://raw.githubusercontent.com/kp-bitcoding/ad-manager/main/Interstitial/2.png",
            "thumbnail_url_original": ""
          },
          "sub_49": {
            "id": 49,
            "mode": "video",
            "name": "Yas",
            "sub_name": "",
            "stream_video_url": "https://admdn1.cdn.mangomolo.com/yastv/smil:yastv.stream.smil/playlist.m3u8?adtv",
            "thumbnail_url": "https://www.iptv-updated.com/wp-content/themes/shootingstar-child/uploaded_images/yas_img_3419.png"
          }
        }
      }
    }
  }
}
