{
  "TV_Data": {
    "Channel_List": {
      "is_channel_list": false,
      "is_override": true,
      "thumb_width": 150,
      "all_Channels_Tab_Name": "",
      "main": {
        "id": 1,
        "name": "Brasilian Channels",
        "sub_name": "Channels",
        "thumbnail_url": "https://www.iptv-updated.com/wp-content/uploads/2019/12/iconfinder_flag-brazil_748057.png",
        "sub": {
          "sub_1": {
            "id": 1,
            "mode": "video",
            "name_original": "IMPD TV",
            "name": "Channel 1",
            "sub_name": "",
            "stream_video_url": "https://58a4464faef53.streamlock.net/impd/ngrp:impd_all/playlist.m3u8",
            "thumbnail_url": "https://raw.githubusercontent.com/tvgram-inc/TVGram/master/TVGram/ChannelsLogo/Spanish.png",
            "thumbnail_url_original": "https://www.iptv-updated.com/wp-content/themes/shootingstar-child/uploaded_images/impd_tv_img_2979.png"
          },
          "sub_5": {
            "id": 5,
            "mode": "video",
            "name_original": "Nova Era TV",
            "name": "Channel 2",
            "sub_name": "",
            "stream_video_url": "http://wz3.dnip.com.br:1935/novaeratv/novaeratv.sdp/live.m3u8",
            "thumbnail_url": "https://raw.githubusercontent.com/tvgram-inc/TVGram/master/TVGram/ChannelsLogo/Spanish.png",
            "thumbnail_url_original": "https://www.iptv-updated.com/wp-content/themes/shootingstar-child/uploaded_images/nova_era_tv_img_3309.png"
          },
          "sub_6": {
            "id": 6,
            "mode": "website",
            "name_original": "",
            "name": "World IPTV",
            "sub_name": "IPTV m3u Playlists(Ad)",
            "website_url": "https://play.google.com/store/apps/details?id=com.iptv.m3u.playlists",
            "is_system_browser": true,
            "thumbnail_url": "https://play-lh.googleusercontent.com/8mPNKodK65zCjQHS8aqF4o0cX9YlKZYN-3qYCd9oMlcTkGaAf_3AxB0vnE9Kud6bPw=w240-h480-rw",
            "thumbnail_url_original": ""
          },
          "sub_7": {
            "id": 7,
            "mode": "video",
            "name_original": "Novo Tempo",
            "name": "Channel 3",
            "sub_name": "",
            "stream_video_url": "http://stream.novotempo.com:1935/tv/smil:tvnovotempo.smil/manifest.m3u8",
            "thumbnail_url": "https://raw.githubusercontent.com/tvgram-inc/TVGram/master/TVGram/ChannelsLogo/Spanish.png",
            "thumbnail_url_original": "https://www.iptv-updated.com/wp-content/themes/shootingstar-child/uploaded_images/novo_tempo_img_2981.png"
          },
          "sub_8": {
            "id": 8,
            "mode": "video",
            "name_original": "Novo Tempo",
            "name": "Channel 4",
            "sub_name": "",
            "stream_video_url": "http://stream.novotempo.com:1935/tv/tvnovotempo.smil/live.m3u8",
            "thumbnail_url": "https://raw.githubusercontent.com/tvgram-inc/TVGram/master/TVGram/ChannelsLogo/Spanish.png",
            "thumbnail_url_original": "https://www.iptv-updated.com/wp-content/themes/shootingstar-child/uploaded_images/novo_tempo_img_2981.png"
          },
          "sub_9": {
            "id": 9,
            "mode": "website",
            "name_original": "",
            "name": "India Live Tv",
            "sub_name": "Live Tv channels (Ad)",
            "website_url": "https://play.google.com/store/apps/details?id=com.tvgram.indialivetv",
            "is_system_browser": true,
            "thumbnail_url": "https://i.postimg.cc/Gm3YYCdq/India-Tv.png",
            "thumbnail_url_original": ""
          },
          "sub_10": {
            "id": 10,
            "mode": "video",
            "name_original": "Rede Brasil de Comunicação",
            "name": "Channel 5",
            "sub_name": "",
            "stream_video_url": "http://rbc.directradios.com:1935/rbc/rbc_720p/live.m3u8",
            "thumbnail_url": "https://raw.githubusercontent.com/tvgram-inc/TVGram/master/TVGram/ChannelsLogo/Spanish.png",
            "thumbnail_url_original": "https://www.iptv-updated.com/wp-content/themes/shootingstar-child/uploaded_images/rede_brasil_de_comunicação_img_3312.png"
          },
          "sub_11": {
            "id": 11,
            "mode": "video",
            "name_original": "Santa Cecilia TV",
            "name": "Channel 6",
            "sub_name": "",
            "stream_video_url": "http://flash1.crossdigital.com.br/2063/2063/playlist.m3u8",
            "thumbnail_url": "https://raw.githubusercontent.com/tvgram-inc/TVGram/master/TVGram/ChannelsLogo/Spanish.png",
            "thumbnail_url_original": "https://www.iptv-updated.com/wp-content/themes/shootingstar-child/uploaded_images/santa_cecilia_tv_img_3316.png"
          },
          "sub_12": {
            "id": 12,
            "mode": "website",
            "name_original": "",
            "name": "YoYo Video Calls",
            "sub_name": "Live Random Video Chat (Ad)",
            "website_url": "https://play.google.com/store/apps/details?id=com.yoyolive.llc",
            "is_system_browser": true,
            "thumbnail_url": "https://i.postimg.cc/KvDBRzS1/YOYO.png",
            "thumbnail_url_original": ""
          },
          "sub_13": {
            "id": 13,
            "mode": "video",
            "name_original": "TV Câmara 2",
            "name": "Channel 7",
            "sub_name": "",
            "stream_video_url": "https://stream3.camara.gov.br/tv2/manifest.m3u8",
            "thumbnail_url": "https://raw.githubusercontent.com/tvgram-inc/TVGram/master/TVGram/ChannelsLogo/Spanish.png",
            "thumbnail_url_original": "https://www.iptv-updated.com/wp-content/themes/shootingstar-child/uploaded_images/tv_câmara_2_img_3332.png"
          },
          "sub_14": {
            "id": 14,
            "mode": "video",
            "name_original": "TV Educativa de Porto Alegre",
            "name": "Channel 8",
            "sub_name": "",
            "stream_video_url": "http://selpro1348.procergs.com.br:1935/tve/stve/playlist.m3u8",
            "thumbnail_url": "https://raw.githubusercontent.com/tvgram-inc/TVGram/master/TVGram/ChannelsLogo/Spanish.png",
            "thumbnail_url_original": "https://www.iptv-updated.com/wp-content/themes/shootingstar-child/uploaded_images/tv_educativa_de_porto_alegre_img_2998.png"
          },
          "sub_15": {
            "id": 15,
            "mode": "website",
            "name_original": "",
            "name": "USA Live TV",
            "sub_name": "USA Tv channels (Ad)",
            "website_url": "https://play.google.com/store/apps/details?id=com.tvgram.usalivetv",
            "is_system_browser": true,
            "thumbnail_url": "https://i.postimg.cc/gJh6dcHk/USA-Tv.png",
            "thumbnail_url_original": ""
          },
          "sub_16": {
            "id": 16,
            "mode": "video",
            "name_original": "TV Gazeta",
            "name": "Channel 9",
            "sub_name": "",
            "stream_video_url": "https://api.new.livestream.com/accounts/5381476/events/8947634/live.m3u8",
            "thumbnail_url": "https://raw.githubusercontent.com/tvgram-inc/TVGram/master/TVGram/ChannelsLogo/Spanish.png",
            "thumbnail_url_original": "https://www.iptv-updated.com/wp-content/themes/shootingstar-child/uploaded_images/tv_gazeta_img_3000.png"
          },
          "sub_17": {
            "id": 17,
            "mode": "video",
            "name_original": "TV Guará",
            "name": "Channel 10",
            "sub_name": "",
            "stream_video_url": "https://59f2354c05961.streamlock.net:1443/tvguara/_definst_/tvguara/playlist.m3u8",
            "thumbnail_url": "https://raw.githubusercontent.com/tvgram-inc/TVGram/master/TVGram/ChannelsLogo/Spanish.png",
            "thumbnail_url_original": "https://www.iptv-updated.com/wp-content/themes/shootingstar-child/uploaded_images/tv_guará_img_3336.png"
          },
          "sub_18": {
            "id": 18,
            "mode": "website",
            "name_original": "",
            "name": "India IPTV List",
            "sub_name": "Indian m3u Playlist (Ad)",
            "website_url": "https://play.google.com/store/apps/details?id=com.bitlinks.india.iptv.m3ulist",
            "is_system_browser": true,
            "thumbnail_url": "https://play-lh.googleusercontent.com/l3rJ2qzJtRFzqUzr55ano_WEhcDx5YznwIpd7uRVxooEbOW5444QY8HeeZbiZhd4Ayc=w240-h480-rw",
            "thumbnail_url_original": ""
          },
          "sub_19": {
            "id": 19,
            "mode": "video",
            "name_original": "TV Pai Eterno",
            "name": "Channel 11",
            "sub_name": "",
            "stream_video_url": "https://59f1cbe63db89.streamlock.net:1443/teste01/_definst_/teste01/playlist.m3u8",
            "thumbnail_url": "https://raw.githubusercontent.com/tvgram-inc/TVGram/master/TVGram/ChannelsLogo/Spanish.png",
            "thumbnail_url_original": "https://www.iptv-updated.com/wp-content/themes/shootingstar-child/uploaded_images/tv_pai_eterno_img_3346.png"
          },
          "sub_20": {
            "id": 20,
            "mode": "video",
            "name_original": "TV Paraná",
            "name": "Channel 12",
            "sub_name": "",
            "stream_video_url": "http://200.189.113.201/hls/tve.m3u8",
            "thumbnail_url": "https://raw.githubusercontent.com/tvgram-inc/TVGram/master/TVGram/ChannelsLogo/Spanish.png",
            "thumbnail_url_original": "https://www.iptv-updated.com/wp-content/themes/shootingstar-child/uploaded_images/tv_paraná_img_3002.png"
          }
        }
      }
    }
  }
}
